id,name,effective_date,amount
payroll_uma_2016,2016,2016-01-27,73.04
payroll_uma_2017,2017,2017-01-10,75.49
payroll_uma_2018,2018,2018-01-10,80.60
payroll_uma_2019,2019,2019-01-10,84.49
payroll_uma_2020,2020,2020-01-10,86.88
payroll_uma_2021,2021,2021-01-08,89.62
payroll_uma_2022,2022,2022-01-10,96.22
payroll_uma_2023,2023,2023-01-10,103.74