id,name,effective_date,amount
payroll_umi_2016,2016,2016-01-01,73.04
payroll_umi_2017,2017,2017-01-01,75.49
payroll_umi_2018,2018,2018-01-01,78.43
payroll_umi_2019,2019,2019-01-01,82.22
payroll_umi_2020,2020,2020-01-01,84.55
payroll_umi_2021,2021,2021-01-01,87.21
payroll_umi_2022,2022,2022-01-01,91.56
payroll_umi_2023,2023,2023-01-01,96.32